module test

go 1.22.0

require (
	google.golang.org/grpc v1.62.0
	google.golang.org/grpc/examples v0.0.0-20240228223710-2a617ca67a6b
)

require (
	github.com/golang/protobuf v1.5.3 // indirect
	golang.org/x/net v0.21.0 // indirect
	golang.org/x/sys v0.17.0 // indirect
	golang.org/x/text v0.14.0 // indirect
	google.golang.org/genproto/googleapis/rpc v0.0.0-20240227224415-6ceb2ff114de // indirect
	google.golang.org/protobuf v1.32.0 // indirect
)
